{
    "m_SGVersion": 3,
    "m_Type": "UnityEditor.ShaderGraph.GraphData",
    "m_ObjectId": "8407888d3e674b0aa7d1e19bc5c5791d",
    "m_Properties": [
        {
            "m_Id": "7424ae57e68c48fdacd46b5545d26758"
        },
        {
            "m_Id": "71fedcdd5cfc48cbb5f8d6fba7cfdd42"
        },
        {
            "m_Id": "b22e3fc58c4b4b03a73b724facfb3d60"
        },
        {
            "m_Id": "01ce4e70294642ec913399445d071001"
        }
    ],
    "m_Keywords": [],
    "m_Dropdowns": [],
    "m_CategoryData": [
        {
            "m_Id": "99cce601b13548198d9fb906fa029ded"
        }
    ],
    "m_Nodes": [
        {
            "m_Id": "f6a67c35f6b84a67bfaac8bc6da02722"
        },
        {
            "m_Id": "87c6177bf17442b393dd0cefe92afd2f"
        },
        {
            "m_Id": "a5c604dbbf3545f69e5c177c23cea499"
        },
        {
            "m_Id": "cd86d9fe76dd4714a99bfce42d45e766"
        },
        {
            "m_Id": "f0df0f5dcbbe4cd19c384a9d6425bdbc"
        },
        {
            "m_Id": "2e1d3ecc331b4cf5912149a3630db97d"
        },
        {
            "m_Id": "83cf8273234547dbbd6b5fae6c30ed8a"
        },
        {
            "m_Id": "62f7c56182de4a4bbb3d53a42a1c6110"
        },
        {
            "m_Id": "fc715fa1db2448238644042c25230e7d"
        },
        {
            "m_Id": "da47bb40fd7a41e2b78957da56acec42"
        },
        {
            "m_Id": "a835d2a5d37b45a986c3da27367b79ff"
        },
        {
            "m_Id": "f73f2b30cc3543208bce53a07c4bd3e0"
        },
        {
            "m_Id": "01388a6da8d84aa99b2f1a0230a7887d"
        },
        {
            "m_Id": "350e328d857b4171aad9fd84b393d790"
        },
        {
            "m_Id": "edbde50690364dc384c1a2e66cb735fc"
        },
        {
            "m_Id": "174d543ead2241f1af825683e64efc9d"
        },
        {
            "m_Id": "acd9473a12734ddfa7b547d71a4bd060"
        },
        {
            "m_Id": "d50694aacfd74f6ebac2cb4e53710957"
        },
        {
            "m_Id": "dd4a2eb2e84d487893d47c0734019b97"
        },
        {
            "m_Id": "e22f6974eea84d619d18ede594347ccd"
        },
        {
            "m_Id": "b9c69aeb484c4d629b9e37b6baefb97d"
        },
        {
            "m_Id": "5bddfb31b59f49ee9ec53854f436a112"
        },
        {
            "m_Id": "e8a4f4a4b6e84bff93c1c941ba41d5e3"
        },
        {
            "m_Id": "37ca1ee3d9ed4f938ea961ea178d6587"
        }
    ],
    "m_GroupDatas": [],
    "m_StickyNoteDatas": [],
    "m_Edges": [
        {
            "m_OutputSlot": {
                "m_Node": {
                    "m_Id": "01388a6da8d84aa99b2f1a0230a7887d"
                },
                "m_SlotId": 1
            },
            "m_InputSlot": {
                "m_Node": {
                    "m_Id": "174d543ead2241f1af825683e64efc9d"
                },
                "m_SlotId": 16648417
            }
        },
        {
            "m_OutputSlot": {
                "m_Node": {
                    "m_Id": "01388a6da8d84aa99b2f1a0230a7887d"
                },
                "m_SlotId": 1
            },
            "m_InputSlot": {
                "m_Node": {
                    "m_Id": "edbde50690364dc384c1a2e66cb735fc"
                },
                "m_SlotId": 1
            }
        },
        {
            "m_OutputSlot": {
                "m_Node": {
                    "m_Id": "01388a6da8d84aa99b2f1a0230a7887d"
                },
                "m_SlotId": 2
            },
            "m_InputSlot": {
                "m_Node": {
                    "m_Id": "350e328d857b4171aad9fd84b393d790"
                },
                "m_SlotId": 0
            }
        },
        {
            "m_OutputSlot": {
                "m_Node": {
                    "m_Id": "01388a6da8d84aa99b2f1a0230a7887d"
                },
                "m_SlotId": 3
            },
            "m_InputSlot": {
                "m_Node": {
                    "m_Id": "e22f6974eea84d619d18ede594347ccd"
                },
                "m_SlotId": 16648417
            }
        },
        {
            "m_OutputSlot": {
                "m_Node": {
                    "m_Id": "01388a6da8d84aa99b2f1a0230a7887d"
                },
                "m_SlotId": 3
            },
            "m_InputSlot": {
                "m_Node": {
                    "m_Id": "edbde50690364dc384c1a2e66cb735fc"
                },
                "m_SlotId": 3
            }
        },
        {
            "m_OutputSlot": {
                "m_Node": {
                    "m_Id": "174d543ead2241f1af825683e64efc9d"
                },
                "m_SlotId": 1
            },
            "m_InputSlot": {
                "m_Node": {
                    "m_Id": "37ca1ee3d9ed4f938ea961ea178d6587"
                },
                "m_SlotId": 0
            }
        },
        {
            "m_OutputSlot": {
                "m_Node": {
                    "m_Id": "350e328d857b4171aad9fd84b393d790"
                },
                "m_SlotId": 2
            },
            "m_InputSlot": {
                "m_Node": {
                    "m_Id": "edbde50690364dc384c1a2e66cb735fc"
                },
                "m_SlotId": 2
            }
        },
        {
            "m_OutputSlot": {
                "m_Node": {
                    "m_Id": "37ca1ee3d9ed4f938ea961ea178d6587"
                },
                "m_SlotId": 2
            },
            "m_InputSlot": {
                "m_Node": {
                    "m_Id": "350e328d857b4171aad9fd84b393d790"
                },
                "m_SlotId": 1
            }
        },
        {
            "m_OutputSlot": {
                "m_Node": {
                    "m_Id": "5bddfb31b59f49ee9ec53854f436a112"
                },
                "m_SlotId": 0
            },
            "m_InputSlot": {
                "m_Node": {
                    "m_Id": "e22f6974eea84d619d18ede594347ccd"
                },
                "m_SlotId": 860339118
            }
        },
        {
            "m_OutputSlot": {
                "m_Node": {
                    "m_Id": "a835d2a5d37b45a986c3da27367b79ff"
                },
                "m_SlotId": 0
            },
            "m_InputSlot": {
                "m_Node": {
                    "m_Id": "cd86d9fe76dd4714a99bfce42d45e766"
                },
                "m_SlotId": 0
            }
        },
        {
            "m_OutputSlot": {
                "m_Node": {
                    "m_Id": "acd9473a12734ddfa7b547d71a4bd060"
                },
                "m_SlotId": 0
            },
            "m_InputSlot": {
                "m_Node": {
                    "m_Id": "174d543ead2241f1af825683e64efc9d"
                },
                "m_SlotId": -1648046779
            }
        },
        {
            "m_OutputSlot": {
                "m_Node": {
                    "m_Id": "b9c69aeb484c4d629b9e37b6baefb97d"
                },
                "m_SlotId": 0
            },
            "m_InputSlot": {
                "m_Node": {
                    "m_Id": "e22f6974eea84d619d18ede594347ccd"
                },
                "m_SlotId": 879364298
            }
        },
        {
            "m_OutputSlot": {
                "m_Node": {
                    "m_Id": "d50694aacfd74f6ebac2cb4e53710957"
                },
                "m_SlotId": 0
            },
            "m_InputSlot": {
                "m_Node": {
                    "m_Id": "174d543ead2241f1af825683e64efc9d"
                },
                "m_SlotId": 860339118
            }
        },
        {
            "m_OutputSlot": {
                "m_Node": {
                    "m_Id": "da47bb40fd7a41e2b78957da56acec42"
                },
                "m_SlotId": 0
            },
            "m_InputSlot": {
                "m_Node": {
                    "m_Id": "a835d2a5d37b45a986c3da27367b79ff"
                },
                "m_SlotId": 1
            }
        },
        {
            "m_OutputSlot": {
                "m_Node": {
                    "m_Id": "dd4a2eb2e84d487893d47c0734019b97"
                },
                "m_SlotId": 0
            },
            "m_InputSlot": {
                "m_Node": {
                    "m_Id": "174d543ead2241f1af825683e64efc9d"
                },
                "m_SlotId": 879364298
            }
        },
        {
            "m_OutputSlot": {
                "m_Node": {
                    "m_Id": "e22f6974eea84d619d18ede594347ccd"
                },
                "m_SlotId": 1
            },
            "m_InputSlot": {
                "m_Node": {
                    "m_Id": "37ca1ee3d9ed4f938ea961ea178d6587"
                },
                "m_SlotId": 1
            }
        },
        {
            "m_OutputSlot": {
                "m_Node": {
                    "m_Id": "e8a4f4a4b6e84bff93c1c941ba41d5e3"
                },
                "m_SlotId": 0
            },
            "m_InputSlot": {
                "m_Node": {
                    "m_Id": "e22f6974eea84d619d18ede594347ccd"
                },
                "m_SlotId": -1648046779
            }
        },
        {
            "m_OutputSlot": {
                "m_Node": {
                    "m_Id": "edbde50690364dc384c1a2e66cb735fc"
                },
                "m_SlotId": 0
            },
            "m_InputSlot": {
                "m_Node": {
                    "m_Id": "f6a67c35f6b84a67bfaac8bc6da02722"
                },
                "m_SlotId": 0
            }
        },
        {
            "m_OutputSlot": {
                "m_Node": {
                    "m_Id": "f73f2b30cc3543208bce53a07c4bd3e0"
                },
                "m_SlotId": 0
            },
            "m_InputSlot": {
                "m_Node": {
                    "m_Id": "01388a6da8d84aa99b2f1a0230a7887d"
                },
                "m_SlotId": 0
            }
        }
    ],
    "m_VertexContext": {
        "m_Position": {
            "x": 0.0,
            "y": 0.0
        },
        "m_Blocks": [
            {
                "m_Id": "f6a67c35f6b84a67bfaac8bc6da02722"
            },
            {
                "m_Id": "87c6177bf17442b393dd0cefe92afd2f"
            },
            {
                "m_Id": "a5c604dbbf3545f69e5c177c23cea499"
            }
        ]
    },
    "m_FragmentContext": {
        "m_Position": {
            "x": 0.0,
            "y": 200.0
        },
        "m_Blocks": [
            {
                "m_Id": "cd86d9fe76dd4714a99bfce42d45e766"
            },
            {
                "m_Id": "f0df0f5dcbbe4cd19c384a9d6425bdbc"
            },
            {
                "m_Id": "2e1d3ecc331b4cf5912149a3630db97d"
            },
            {
                "m_Id": "83cf8273234547dbbd6b5fae6c30ed8a"
            },
            {
                "m_Id": "62f7c56182de4a4bbb3d53a42a1c6110"
            },
            {
                "m_Id": "fc715fa1db2448238644042c25230e7d"
            }
        ]
    },
    "m_PreviewData": {
        "serializedMesh": {
            "m_SerializedMesh": "{\"mesh\":{\"instanceID\":0}}",
            "m_Guid": ""
        },
        "preventRotation": false
    },
    "m_Path": "Shader Graphs",
    "m_GraphPrecision": 1,
    "m_PreviewMode": 2,
    "m_OutputNode": {
        "m_Id": ""
    },
    "m_ActiveTargets": [
        {
            "m_Id": "423622239842400da8a86291cdf070c6"
        }
    ]
}

{
    "m_SGVersion": 0,
    "m_Type": "UnityEditor.ShaderGraph.SplitNode",
    "m_ObjectId": "01388a6da8d84aa99b2f1a0230a7887d",
    "m_Group": {
        "m_Id": ""
    },
    "m_Name": "Split",
    "m_DrawState": {
        "m_Expanded": true,
        "m_Position": {
            "serializedVersion": "2",
            "x": -1140.800048828125,
            "y": 21.600000381469728,
            "width": 119.20001220703125,
            "height": 148.8000030517578
        }
    },
    "m_Slots": [
        {
            "m_Id": "a959919563a94aaca66ce4fd310acf5a"
        },
        {
            "m_Id": "f710571636e64193b3bf29f2f9851c62"
        },
        {
            "m_Id": "2dcca4672fe64e72a126eb9e84a102f0"
        },
        {
            "m_Id": "bda0fe10dd014bb7a0c95ca3314af5f4"
        },
        {
            "m_Id": "0c57e1250f4142079b382d4a12db870e"
        }
    ],
    "synonyms": [
        "separate"
    ],
    "m_Precision": 0,
    "m_PreviewExpanded": true,
    "m_DismissedVersion": 0,
    "m_PreviewMode": 0,
    "m_CustomColors": {
        "m_SerializableColors": []
    }
}

{
    "m_SGVersion": 1,
    "m_Type": "UnityEditor.ShaderGraph.Internal.Vector1ShaderProperty",
    "m_ObjectId": "01ce4e70294642ec913399445d071001",
    "m_Guid": {
        "m_GuidSerialized": "3e43318d-03ab-4408-8e5d-83aa4026cd23"
    },
    "m_Name": "Speed",
    "m_DefaultRefNameVersion": 1,
    "m_RefNameGeneratedByDisplayName": "Speed",
    "m_DefaultReferenceName": "_Speed",
    "m_OverrideReferenceName": "",
    "m_GeneratePropertyBlock": true,
    "m_UseCustomSlotLabel": false,
    "m_CustomSlotLabel": "",
    "m_DismissedVersion": 0,
    "m_Precision": 0,
    "overrideHLSLDeclaration": false,
    "hlslDeclarationOverride": 0,
    "m_Hidden": false,
    "m_Value": 1.0,
    "m_FloatType": 0,
    "m_RangeValues": {
        "x": 0.0,
        "y": 1.0
    }
}

{
    "m_SGVersion": 0,
    "m_Type": "UnityEditor.ShaderGraph.Vector4MaterialSlot",
    "m_ObjectId": "0305d8b16a1c48689ffe37dd6dbfdb2b",
    "m_Id": 0,
    "m_DisplayName": "RGBA",
    "m_SlotType": 1,
    "m_Hidden": false,
    "m_ShaderOutputName": "RGBA",
    "m_StageCapability": 2,
    "m_Value": {
        "x": 0.0,
        "y": 0.0,
        "z": 0.0,
        "w": 0.0
    },
    "m_DefaultValue": {
        "x": 0.0,
        "y": 0.0,
        "z": 0.0,
        "w": 0.0
    },
    "m_Labels": []
}

{
    "m_SGVersion": 0,
    "m_Type": "UnityEditor.ShaderGraph.Vector1MaterialSlot",
    "m_ObjectId": "082735a0515d4a7c9f6dffeb037dbf10",
    "m_Id": -1648046779,
    "m_DisplayName": "Speed",
    "m_SlotType": 0,
    "m_Hidden": false,
    "m_ShaderOutputName": "_Speed",
    "m_StageCapability": 3,
    "m_Value": 1.0,
    "m_DefaultValue": 0.0,
    "m_Labels": []
}

{
    "m_SGVersion": 0,
    "m_Type": "UnityEditor.ShaderGraph.Vector1MaterialSlot",
    "m_ObjectId": "0c57e1250f4142079b382d4a12db870e",
    "m_Id": 4,
    "m_DisplayName": "A",
    "m_SlotType": 1,
    "m_Hidden": false,
    "m_ShaderOutputName": "A",
    "m_StageCapability": 3,
    "m_Value": 0.0,
    "m_DefaultValue": 0.0,
    "m_Labels": []
}

{
    "m_SGVersion": 0,
    "m_Type": "UnityEditor.ShaderGraph.Vector1MaterialSlot",
    "m_ObjectId": "0ea47dcd2b79426ea7eb4228d1f5aad8",
    "m_Id": 0,
    "m_DisplayName": "Metallic",
    "m_SlotType": 0,
    "m_Hidden": false,
    "m_ShaderOutputName": "Metallic",
    "m_StageCapability": 2,
    "m_Value": 0.0,
    "m_DefaultValue": 0.0,
    "m_Labels": []
}

{
    "m_SGVersion": 0,
    "m_Type": "UnityEditor.ShaderGraph.ColorRGBMaterialSlot",
    "m_ObjectId": "0f5d11156c184cca93b64c2836f7ef08",
    "m_Id": 0,
    "m_DisplayName": "Base Color",
    "m_SlotType": 0,
    "m_Hidden": false,
    "m_ShaderOutputName": "BaseColor",
    "m_StageCapability": 2,
    "m_Value": {
        "x": 0.5,
        "y": 0.5,
        "z": 0.5
    },
    "m_DefaultValue": {
        "x": 0.0,
        "y": 0.0,
        "z": 0.0
    },
    "m_Labels": [],
    "m_ColorMode": 0,
    "m_DefaultColor": {
        "r": 0.5,
        "g": 0.5,
        "b": 0.5,
        "a": 1.0
    }
}

{
    "m_SGVersion": 0,
    "m_Type": "UnityEditor.ShaderGraph.SubGraphNode",
    "m_ObjectId": "174d543ead2241f1af825683e64efc9d",
    "m_Group": {
        "m_Id": ""
    },
    "m_Name": "Linear Wave",
    "m_DrawState": {
        "m_Expanded": true,
        "m_Position": {
            "serializedVersion": "2",
            "x": -952.0,
            "y": -104.0,
            "width": 226.0,
            "height": 166.0
        }
    },
    "m_Slots": [
        {
            "m_Id": "34951aa956f349f6b07842be72704359"
        },
        {
            "m_Id": "441d1324088749f4b010964f8123465d"
        },
        {
            "m_Id": "426663db2f5f4b83bee9a785e4f32a78"
        },
        {
            "m_Id": "f4f52ee56af141e6a656e65d55363be1"
        },
        {
            "m_Id": "edc69bb90d03488fbd1f6b7b12490fb9"
        }
    ],
    "synonyms": [],
    "m_Precision": 0,
    "m_PreviewExpanded": false,
    "m_DismissedVersion": 0,
    "m_PreviewMode": 0,
    "m_CustomColors": {
        "m_SerializableColors": []
    },
    "m_SerializedSubGraph": "{\n    \"subGraph\": {\n        \"fileID\": -5475051401550479605,\n        \"guid\": \"d4e860fb178c55a4e8648aea0b7a6e51\",\n        \"type\": 3\n    }\n}",
    "m_PropertyGuids": [
        "d381b8a9-8e76-4a96-9654-c4cda86a2d54",
        "cde3953c-4812-4a74-9a96-41e87e43bc5b",
        "7c1692fa-9686-49c5-b86f-cb126ad05f14",
        "3bcc58e1-1a04-4624-904f-0aa930c02649"
    ],
    "m_PropertyIds": [
        16648417,
        879364298,
        860339118,
        -1648046779
    ],
    "m_Dropdowns": [],
    "m_DropdownSelectedEntries": []
}

{
    "m_SGVersion": 0,
    "m_Type": "UnityEditor.ShaderGraph.DynamicVectorMaterialSlot",
    "m_ObjectId": "2903b39bf7364198bb7c901aade15c96",
    "m_Id": 1,
    "m_DisplayName": "B",
    "m_SlotType": 0,
    "m_Hidden": false,
    "m_ShaderOutputName": "B",
    "m_StageCapability": 3,
    "m_Value": {
        "x": 1.0,
        "y": 1.0,
        "z": 1.0,
        "w": 1.0
    },
    "m_DefaultValue": {
        "x": 0.0,
        "y": 0.0,
        "z": 0.0,
        "w": 0.0
    }
}

{
    "m_SGVersion": 0,
    "m_Type": "UnityEditor.ShaderGraph.Vector1MaterialSlot",
    "m_ObjectId": "2b158b40b4c74371bfbe07a22761aca7",
    "m_Id": 6,
    "m_DisplayName": "B",
    "m_SlotType": 1,
    "m_Hidden": false,
    "m_ShaderOutputName": "B",
    "m_StageCapability": 2,
    "m_Value": 0.0,
    "m_DefaultValue": 0.0,
    "m_Labels": []
}

{
    "m_SGVersion": 0,
    "m_Type": "UnityEditor.ShaderGraph.Vector1MaterialSlot",
    "m_ObjectId": "2dcca4672fe64e72a126eb9e84a102f0",
    "m_Id": 2,
    "m_DisplayName": "G",
    "m_SlotType": 1,
    "m_Hidden": false,
    "m_ShaderOutputName": "G",
    "m_StageCapability": 3,
    "m_Value": 0.0,
    "m_DefaultValue": 0.0,
    "m_Labels": []
}

{
    "m_SGVersion": 0,
    "m_Type": "UnityEditor.ShaderGraph.BlockNode",
    "m_ObjectId": "2e1d3ecc331b4cf5912149a3630db97d",
    "m_Group": {
        "m_Id": ""
    },
    "m_Name": "SurfaceDescription.Metallic",
    "m_DrawState": {
        "m_Expanded": true,
        "m_Position": {
            "serializedVersion": "2",
            "x": 0.0,
            "y": 0.0,
            "width": 0.0,
            "height": 0.0
        }
    },
    "m_Slots": [
        {
            "m_Id": "0ea47dcd2b79426ea7eb4228d1f5aad8"
        }
    ],
    "synonyms": [],
    "m_Precision": 0,
    "m_PreviewExpanded": true,
    "m_DismissedVersion": 0,
    "m_PreviewMode": 0,
    "m_CustomColors": {
        "m_SerializableColors": []
    },
    "m_SerializedDescriptor": "SurfaceDescription.Metallic"
}

{
    "m_SGVersion": 0,
    "m_Type": "UnityEditor.ShaderGraph.SamplerStateMaterialSlot",
    "m_ObjectId": "32811ac32c684b44826f1d1f26a914bb",
    "m_Id": 3,
    "m_DisplayName": "Sampler",
    "m_SlotType": 0,
    "m_Hidden": false,
    "m_ShaderOutputName": "Sampler",
    "m_StageCapability": 3,
    "m_BareResource": false
}

{
    "m_SGVersion": 0,
    "m_Type": "UnityEditor.ShaderGraph.Vector1MaterialSlot",
    "m_ObjectId": "34951aa956f349f6b07842be72704359",
    "m_Id": 16648417,
    "m_DisplayName": "X",
    "m_SlotType": 0,
    "m_Hidden": false,
    "m_ShaderOutputName": "_X",
    "m_StageCapability": 3,
    "m_Value": 0.0,
    "m_DefaultValue": 0.0,
    "m_Labels": []
}

{
    "m_SGVersion": 0,
    "m_Type": "UnityEditor.ShaderGraph.SubtractNode",
    "m_ObjectId": "350e328d857b4171aad9fd84b393d790",
    "m_Group": {
        "m_Id": ""
    },
    "m_Name": "Subtract",
    "m_DrawState": {
        "m_Expanded": true,
        "m_Position": {
            "serializedVersion": "2",
            "x": -502.0,
            "y": 39.0,
            "width": 208.0,
            "height": 302.0
        }
    },
    "m_Slots": [
        {
            "m_Id": "f569e6a1f62c493daaf4c4d457662ea5"
        },
        {
            "m_Id": "3b2929c469804434a2a4320bbbafc5ad"
        },
        {
            "m_Id": "aa81ee0d13844795878832e9c332783b"
        }
    ],
    "synonyms": [
        "subtraction",
        "remove",
        "minus",
        "take away"
    ],
    "m_Precision": 0,
    "m_PreviewExpanded": true,
    "m_DismissedVersion": 0,
    "m_PreviewMode": 0,
    "m_CustomColors": {
        "m_SerializableColors": []
    }
}

{
    "m_SGVersion": 0,
    "m_Type": "UnityEditor.ShaderGraph.SubtractNode",
    "m_ObjectId": "37ca1ee3d9ed4f938ea961ea178d6587",
    "m_Group": {
        "m_Id": ""
    },
    "m_Name": "Subtract",
    "m_DrawState": {
        "m_Expanded": true,
        "m_Position": {
            "serializedVersion": "2",
            "x": -675.0,
            "y": 94.0,
            "width": 126.0,
            "height": 118.0
        }
    },
    "m_Slots": [
        {
            "m_Id": "39a704bbb4094dcc8c2569b5f27d45b0"
        },
        {
            "m_Id": "2903b39bf7364198bb7c901aade15c96"
        },
        {
            "m_Id": "c4ac48cac2574ce6a04d3b0d05b66d5f"
        }
    ],
    "synonyms": [
        "subtraction",
        "remove",
        "minus",
        "take away"
    ],
    "m_Precision": 0,
    "m_PreviewExpanded": false,
    "m_DismissedVersion": 0,
    "m_PreviewMode": 0,
    "m_CustomColors": {
        "m_SerializableColors": []
    }
}

{
    "m_SGVersion": 0,
    "m_Type": "UnityEditor.ShaderGraph.DynamicVectorMaterialSlot",
    "m_ObjectId": "39a704bbb4094dcc8c2569b5f27d45b0",
    "m_Id": 0,
    "m_DisplayName": "A",
    "m_SlotType": 0,
    "m_Hidden": false,
    "m_ShaderOutputName": "A",
    "m_StageCapability": 3,
    "m_Value": {
        "x": 1.0,
        "y": 1.0,
        "z": 1.0,
        "w": 1.0
    },
    "m_DefaultValue": {
        "x": 0.0,
        "y": 0.0,
        "z": 0.0,
        "w": 0.0
    }
}

{
    "m_SGVersion": 0,
    "m_Type": "UnityEditor.ShaderGraph.DynamicVectorMaterialSlot",
    "m_ObjectId": "3b2929c469804434a2a4320bbbafc5ad",
    "m_Id": 1,
    "m_DisplayName": "B",
    "m_SlotType": 0,
    "m_Hidden": false,
    "m_ShaderOutputName": "B",
    "m_StageCapability": 3,
    "m_Value": {
        "x": 1.0,
        "y": 1.0,
        "z": 1.0,
        "w": 1.0
    },
    "m_DefaultValue": {
        "x": 0.0,
        "y": 0.0,
        "z": 0.0,
        "w": 0.0
    }
}

{
    "m_SGVersion": 0,
    "m_Type": "UnityEditor.ShaderGraph.ColorRGBMaterialSlot",
    "m_ObjectId": "3f170db8d0f04fd493256eb5f9a7ddfb",
    "m_Id": 0,
    "m_DisplayName": "Emission",
    "m_SlotType": 0,
    "m_Hidden": false,
    "m_ShaderOutputName": "Emission",
    "m_StageCapability": 2,
    "m_Value": {
        "x": 0.0,
        "y": 0.0,
        "z": 0.0
    },
    "m_DefaultValue": {
        "x": 0.0,
        "y": 0.0,
        "z": 0.0
    },
    "m_Labels": [],
    "m_ColorMode": 1,
    "m_DefaultColor": {
        "r": 0.0,
        "g": 0.0,
        "b": 0.0,
        "a": 1.0
    }
}

{
    "m_SGVersion": 0,
    "m_Type": "UnityEditor.ShaderGraph.Vector1MaterialSlot",
    "m_ObjectId": "3f6cfa65a88846a29465854b14130f05",
    "m_Id": 0,
    "m_DisplayName": "Amplitude",
    "m_SlotType": 1,
    "m_Hidden": false,
    "m_ShaderOutputName": "Out",
    "m_StageCapability": 3,
    "m_Value": 0.0,
    "m_DefaultValue": 0.0,
    "m_Labels": []
}

{
    "m_SGVersion": 1,
    "m_Type": "UnityEditor.Rendering.Universal.ShaderGraph.UniversalTarget",
    "m_ObjectId": "423622239842400da8a86291cdf070c6",
    "m_Datas": [],
    "m_ActiveSubTarget": {
        "m_Id": "454f6a8e744a4aa88804ee3ca266c156"
    },
    "m_AllowMaterialOverride": false,
    "m_SurfaceType": 0,
    "m_ZTestMode": 4,
    "m_ZWriteControl": 0,
    "m_AlphaMode": 0,
    "m_RenderFace": 2,
    "m_AlphaClip": false,
    "m_CastShadows": true,
    "m_ReceiveShadows": true,
    "m_SupportsLODCrossFade": false,
    "m_CustomEditorGUI": "",
    "m_SupportVFX": false
}

{
    "m_SGVersion": 0,
    "m_Type": "UnityEditor.ShaderGraph.Vector1MaterialSlot",
    "m_ObjectId": "426663db2f5f4b83bee9a785e4f32a78",
    "m_Id": 860339118,
    "m_DisplayName": "Amplitude",
    "m_SlotType": 0,
    "m_Hidden": false,
    "m_ShaderOutputName": "_Amplitude",
    "m_StageCapability": 3,
    "m_Value": 1.0,
    "m_DefaultValue": 0.0,
    "m_Labels": []
}

{
    "m_SGVersion": 0,
    "m_Type": "UnityEditor.ShaderGraph.Vector1MaterialSlot",
    "m_ObjectId": "441d1324088749f4b010964f8123465d",
    "m_Id": 879364298,
    "m_DisplayName": "Frequency",
    "m_SlotType": 0,
    "m_Hidden": false,
    "m_ShaderOutputName": "_Frequency",
    "m_StageCapability": 3,
    "m_Value": 1.0,
    "m_DefaultValue": 0.0,
    "m_Labels": []
}

{
    "m_SGVersion": 2,
    "m_Type": "UnityEditor.Rendering.Universal.ShaderGraph.UniversalLitSubTarget",
    "m_ObjectId": "454f6a8e744a4aa88804ee3ca266c156",
    "m_WorkflowMode": 1,
    "m_NormalDropOffSpace": 0,
    "m_ClearCoat": false,
    "m_BlendModePreserveSpecular": true
}

{
    "m_SGVersion": 0,
    "m_Type": "UnityEditor.ShaderGraph.Vector1MaterialSlot",
    "m_ObjectId": "4b7ee17a558344bfbfc31d29a57498ed",
    "m_Id": 0,
    "m_DisplayName": "Frequency",
    "m_SlotType": 1,
    "m_Hidden": false,
    "m_ShaderOutputName": "Out",
    "m_StageCapability": 3,
    "m_Value": 0.0,
    "m_DefaultValue": 0.0,
    "m_Labels": []
}

{
    "m_SGVersion": 0,
    "m_Type": "UnityEditor.ShaderGraph.Vector1MaterialSlot",
    "m_ObjectId": "4ed24bf8c1d94ef589e4b88f41ceccb3",
    "m_Id": 860339118,
    "m_DisplayName": "Amplitude",
    "m_SlotType": 0,
    "m_Hidden": false,
    "m_ShaderOutputName": "_Amplitude",
    "m_StageCapability": 3,
    "m_Value": 1.0,
    "m_DefaultValue": 0.0,
    "m_Labels": []
}

{
    "m_SGVersion": 0,
    "m_Type": "UnityEditor.ShaderGraph.NormalMaterialSlot",
    "m_ObjectId": "549072d0aa2b4924a980c3b95442e72b",
    "m_Id": 0,
    "m_DisplayName": "Normal (Tangent Space)",
    "m_SlotType": 0,
    "m_Hidden": false,
    "m_ShaderOutputName": "NormalTS",
    "m_StageCapability": 2,
    "m_Value": {
        "x": 0.0,
        "y": 0.0,
        "z": 0.0
    },
    "m_DefaultValue": {
        "x": 0.0,
        "y": 0.0,
        "z": 0.0
    },
    "m_Labels": [],
    "m_Space": 3
}

{
    "m_SGVersion": 0,
    "m_Type": "UnityEditor.ShaderGraph.Vector1MaterialSlot",
    "m_ObjectId": "5673046ef3744f389bef070c7502382a",
    "m_Id": 1,
    "m_DisplayName": "X",
    "m_SlotType": 0,
    "m_Hidden": false,
    "m_ShaderOutputName": "X",
    "m_StageCapability": 3,
    "m_Value": 0.0,
    "m_DefaultValue": 0.0,
    "m_Labels": []
}

{
    "m_SGVersion": 0,
    "m_Type": "UnityEditor.ShaderGraph.Vector1MaterialSlot",
    "m_ObjectId": "56fb8b8f47b04f1ab9c5feb35dce35f2",
    "m_Id": 0,
    "m_DisplayName": "Frequency",
    "m_SlotType": 1,
    "m_Hidden": false,
    "m_ShaderOutputName": "Out",
    "m_StageCapability": 3,
    "m_Value": 0.0,
    "m_DefaultValue": 0.0,
    "m_Labels": []
}

{
    "m_SGVersion": 0,
    "m_Type": "UnityEditor.ShaderGraph.PropertyNode",
    "m_ObjectId": "5bddfb31b59f49ee9ec53854f436a112",
    "m_Group": {
        "m_Id": ""
    },
    "m_Name": "Property",
    "m_DrawState": {
        "m_Expanded": true,
        "m_Position": {
            "serializedVersion": "2",
            "x": -1152.0,
            "y": 207.0,
            "width": 131.0,
            "height": 34.0
        }
    },
    "m_Slots": [
        {
            "m_Id": "56fb8b8f47b04f1ab9c5feb35dce35f2"
        }
    ],
    "synonyms": [],
    "m_Precision": 0,
    "m_PreviewExpanded": true,
    "m_DismissedVersion": 0,
    "m_PreviewMode": 0,
    "m_CustomColors": {
        "m_SerializableColors": []
    },
    "m_Property": {
        "m_Id": "b22e3fc58c4b4b03a73b724facfb3d60"
    }
}

{
    "m_SGVersion": 0,
    "m_Type": "UnityEditor.ShaderGraph.BlockNode",
    "m_ObjectId": "62f7c56182de4a4bbb3d53a42a1c6110",
    "m_Group": {
        "m_Id": ""
    },
    "m_Name": "SurfaceDescription.Emission",
    "m_DrawState": {
        "m_Expanded": true,
        "m_Position": {
            "serializedVersion": "2",
            "x": 0.0,
            "y": 0.0,
            "width": 0.0,
            "height": 0.0
        }
    },
    "m_Slots": [
        {
            "m_Id": "3f170db8d0f04fd493256eb5f9a7ddfb"
        }
    ],
    "synonyms": [],
    "m_Precision": 0,
    "m_PreviewExpanded": true,
    "m_DismissedVersion": 0,
    "m_PreviewMode": 0,
    "m_CustomColors": {
        "m_SerializableColors": []
    },
    "m_SerializedDescriptor": "SurfaceDescription.Emission"
}

{
    "m_SGVersion": 1,
    "m_Type": "UnityEditor.ShaderGraph.Internal.Vector1ShaderProperty",
    "m_ObjectId": "71fedcdd5cfc48cbb5f8d6fba7cfdd42",
    "m_Guid": {
        "m_GuidSerialized": "7e84ba75-865c-4e45-93d5-c4e26f2ae414"
    },
    "m_Name": "Amplitude",
    "m_DefaultRefNameVersion": 1,
    "m_RefNameGeneratedByDisplayName": "Amplitude",
    "m_DefaultReferenceName": "_Amplitude",
    "m_OverrideReferenceName": "",
    "m_GeneratePropertyBlock": true,
    "m_UseCustomSlotLabel": false,
    "m_CustomSlotLabel": "",
    "m_DismissedVersion": 0,
    "m_Precision": 0,
    "overrideHLSLDeclaration": false,
    "hlslDeclarationOverride": 0,
    "m_Hidden": false,
    "m_Value": 1.0,
    "m_FloatType": 0,
    "m_RangeValues": {
        "x": 0.0,
        "y": 1.0
    }
}

{
    "m_SGVersion": 0,
    "m_Type": "UnityEditor.ShaderGraph.Internal.Texture2DShaderProperty",
    "m_ObjectId": "7424ae57e68c48fdacd46b5545d26758",
    "m_Guid": {
        "m_GuidSerialized": "4f716c70-c80b-407f-8b0f-37afc7a9a08a"
    },
    "m_Name": "BaseMap",
    "m_DefaultRefNameVersion": 1,
    "m_RefNameGeneratedByDisplayName": "BaseMap",
    "m_DefaultReferenceName": "_BaseMap",
    "m_OverrideReferenceName": "",
    "m_GeneratePropertyBlock": true,
    "m_UseCustomSlotLabel": false,
    "m_CustomSlotLabel": "",
    "m_DismissedVersion": 0,
    "m_Precision": 0,
    "overrideHLSLDeclaration": false,
    "hlslDeclarationOverride": 0,
    "m_Hidden": false,
    "m_Value": {
        "m_SerializedTexture": "{\"texture\":{\"instanceID\":0}}",
        "m_Guid": ""
    },
    "isMainTexture": false,
    "useTilingAndOffset": false,
    "m_Modifiable": true,
    "m_DefaultType": 0
}

{
    "m_SGVersion": 0,
    "m_Type": "UnityEditor.ShaderGraph.Vector1MaterialSlot",
    "m_ObjectId": "784c8af795a749089ede82d016237a7b",
    "m_Id": 2,
    "m_DisplayName": "Y",
    "m_SlotType": 0,
    "m_Hidden": false,
    "m_ShaderOutputName": "Y",
    "m_StageCapability": 3,
    "m_Value": 0.0,
    "m_DefaultValue": 0.0,
    "m_Labels": [
        "Y"
    ]
}

{
    "m_SGVersion": 0,
    "m_Type": "UnityEditor.ShaderGraph.PositionMaterialSlot",
    "m_ObjectId": "7e0156affca442e987d36251dd6b3d9b",
    "m_Id": 0,
    "m_DisplayName": "Position",
    "m_SlotType": 0,
    "m_Hidden": false,
    "m_ShaderOutputName": "Position",
    "m_StageCapability": 1,
    "m_Value": {
        "x": 0.0,
        "y": 0.0,
        "z": 0.0
    },
    "m_DefaultValue": {
        "x": 0.0,
        "y": 0.0,
        "z": 0.0
    },
    "m_Labels": [],
    "m_Space": 0
}

{
    "m_SGVersion": 0,
    "m_Type": "UnityEditor.ShaderGraph.BlockNode",
    "m_ObjectId": "83cf8273234547dbbd6b5fae6c30ed8a",
    "m_Group": {
        "m_Id": ""
    },
    "m_Name": "SurfaceDescription.Smoothness",
    "m_DrawState": {
        "m_Expanded": true,
        "m_Position": {
            "serializedVersion": "2",
            "x": 0.0,
            "y": 0.0,
            "width": 0.0,
            "height": 0.0
        }
    },
    "m_Slots": [
        {
            "m_Id": "f9d3a76b54ac4c4b85a5a189f3da9800"
        }
    ],
    "synonyms": [],
    "m_Precision": 0,
    "m_PreviewExpanded": true,
    "m_DismissedVersion": 0,
    "m_PreviewMode": 0,
    "m_CustomColors": {
        "m_SerializableColors": []
    },
    "m_SerializedDescriptor": "SurfaceDescription.Smoothness"
}

{
    "m_SGVersion": 0,
    "m_Type": "UnityEditor.ShaderGraph.BlockNode",
    "m_ObjectId": "87c6177bf17442b393dd0cefe92afd2f",
    "m_Group": {
        "m_Id": ""
    },
    "m_Name": "VertexDescription.Normal",
    "m_DrawState": {
        "m_Expanded": true,
        "m_Position": {
            "serializedVersion": "2",
            "x": 0.0,
            "y": 0.0,
            "width": 0.0,
            "height": 0.0
        }
    },
    "m_Slots": [
        {
            "m_Id": "f4730e09444b443d9ec69d2c6c0428bb"
        }
    ],
    "synonyms": [],
    "m_Precision": 0,
    "m_PreviewExpanded": true,
    "m_DismissedVersion": 0,
    "m_PreviewMode": 0,
    "m_CustomColors": {
        "m_SerializableColors": []
    },
    "m_SerializedDescriptor": "VertexDescription.Normal"
}

{
    "m_SGVersion": 0,
    "m_Type": "UnityEditor.ShaderGraph.UVMaterialSlot",
    "m_ObjectId": "8d3c0c7b96c54055b73aa8e3eff9e878",
    "m_Id": 2,
    "m_DisplayName": "UV",
    "m_SlotType": 0,
    "m_Hidden": false,
    "m_ShaderOutputName": "UV",
    "m_StageCapability": 3,
    "m_Value": {
        "x": 0.0,
        "y": 0.0
    },
    "m_DefaultValue": {
        "x": 0.0,
        "y": 0.0
    },
    "m_Labels": [],
    "m_Channel": 0
}

{
    "m_SGVersion": 0,
    "m_Type": "UnityEditor.ShaderGraph.Vector1MaterialSlot",
    "m_ObjectId": "928de837a7e74e71aea16f1aa1bda5ad",
    "m_Id": 879364298,
    "m_DisplayName": "Frequency",
    "m_SlotType": 0,
    "m_Hidden": false,
    "m_ShaderOutputName": "_Frequency",
    "m_StageCapability": 3,
    "m_Value": 1.0,
    "m_DefaultValue": 0.0,
    "m_Labels": []
}

{
    "m_SGVersion": 0,
    "m_Type": "UnityEditor.ShaderGraph.Texture2DMaterialSlot",
    "m_ObjectId": "96d8290efae945a282b35ef08bb07378",
    "m_Id": 0,
    "m_DisplayName": "BaseMap",
    "m_SlotType": 1,
    "m_Hidden": false,
    "m_ShaderOutputName": "Out",
    "m_StageCapability": 3,
    "m_BareResource": false
}

{
    "m_SGVersion": 0,
    "m_Type": "UnityEditor.ShaderGraph.CategoryData",
    "m_ObjectId": "99cce601b13548198d9fb906fa029ded",
    "m_Name": "",
    "m_ChildObjectList": [
        {
            "m_Id": "7424ae57e68c48fdacd46b5545d26758"
        },
        {
            "m_Id": "71fedcdd5cfc48cbb5f8d6fba7cfdd42"
        },
        {
            "m_Id": "b22e3fc58c4b4b03a73b724facfb3d60"
        },
        {
            "m_Id": "01ce4e70294642ec913399445d071001"
        }
    ]
}

{
    "m_SGVersion": 0,
    "m_Type": "UnityEditor.ShaderGraph.Vector1MaterialSlot",
    "m_ObjectId": "9e277d5b30bc4a89992e810c537331dd",
    "m_Id": 0,
    "m_DisplayName": "Speed",
    "m_SlotType": 1,
    "m_Hidden": false,
    "m_ShaderOutputName": "Out",
    "m_StageCapability": 3,
    "m_Value": 0.0,
    "m_DefaultValue": 0.0,
    "m_Labels": []
}

{
    "m_SGVersion": 0,
    "m_Type": "UnityEditor.ShaderGraph.TangentMaterialSlot",
    "m_ObjectId": "9f024606d2844a55ba696fafdd2fa5b0",
    "m_Id": 0,
    "m_DisplayName": "Tangent",
    "m_SlotType": 0,
    "m_Hidden": false,
    "m_ShaderOutputName": "Tangent",
    "m_StageCapability": 1,
    "m_Value": {
        "x": 0.0,
        "y": 0.0,
        "z": 0.0
    },
    "m_DefaultValue": {
        "x": 0.0,
        "y": 0.0,
        "z": 0.0
    },
    "m_Labels": [],
    "m_Space": 0
}

{
    "m_SGVersion": 0,
    "m_Type": "UnityEditor.ShaderGraph.BlockNode",
    "m_ObjectId": "a5c604dbbf3545f69e5c177c23cea499",
    "m_Group": {
        "m_Id": ""
    },
    "m_Name": "VertexDescription.Tangent",
    "m_DrawState": {
        "m_Expanded": true,
        "m_Position": {
            "serializedVersion": "2",
            "x": 0.0,
            "y": 0.0,
            "width": 0.0,
            "height": 0.0
        }
    },
    "m_Slots": [
        {
            "m_Id": "9f024606d2844a55ba696fafdd2fa5b0"
        }
    ],
    "synonyms": [],
    "m_Precision": 0,
    "m_PreviewExpanded": true,
    "m_DismissedVersion": 0,
    "m_PreviewMode": 0,
    "m_CustomColors": {
        "m_SerializableColors": []
    },
    "m_SerializedDescriptor": "VertexDescription.Tangent"
}

{
    "m_SGVersion": 0,
    "m_Type": "UnityEditor.ShaderGraph.SampleTexture2DNode",
    "m_ObjectId": "a835d2a5d37b45a986c3da27367b79ff",
    "m_Group": {
        "m_Id": ""
    },
    "m_Name": "Sample Texture 2D",
    "m_DrawState": {
        "m_Expanded": true,
        "m_Position": {
            "serializedVersion": "2",
            "x": -232.20867919921876,
            "y": 240.59127807617188,
            "width": 208.0,
            "height": 432.0
        }
    },
    "m_Slots": [
        {
            "m_Id": "0305d8b16a1c48689ffe37dd6dbfdb2b"
        },
        {
            "m_Id": "cb49acb20e2c4192b8ba86699d10882a"
        },
        {
            "m_Id": "dd560aa483164a8a866a3a91ef8b2727"
        },
        {
            "m_Id": "2b158b40b4c74371bfbe07a22761aca7"
        },
        {
            "m_Id": "f406ed09195c40ce81e7f7d993bddf2e"
        },
        {
            "m_Id": "df7fcd177c4946b9950a5aaa8f3b4192"
        },
        {
            "m_Id": "8d3c0c7b96c54055b73aa8e3eff9e878"
        },
        {
            "m_Id": "32811ac32c684b44826f1d1f26a914bb"
        }
    ],
    "synonyms": [
        "tex2d"
    ],
    "m_Precision": 0,
    "m_PreviewExpanded": true,
    "m_DismissedVersion": 0,
    "m_PreviewMode": 0,
    "m_CustomColors": {
        "m_SerializableColors": []
    },
    "m_TextureType": 0,
    "m_NormalMapSpace": 0,
    "m_EnableGlobalMipBias": true,
    "m_MipSamplingMode": 0
}

{
    "m_SGVersion": 0,
    "m_Type": "UnityEditor.ShaderGraph.DynamicVectorMaterialSlot",
    "m_ObjectId": "a959919563a94aaca66ce4fd310acf5a",
    "m_Id": 0,
    "m_DisplayName": "In",
    "m_SlotType": 0,
    "m_Hidden": false,
    "m_ShaderOutputName": "In",
    "m_StageCapability": 3,
    "m_Value": {
        "x": 0.0,
        "y": 0.0,
        "z": 0.0,
        "w": 0.0
    },
    "m_DefaultValue": {
        "x": 0.0,
        "y": 0.0,
        "z": 0.0,
        "w": 0.0
    }
}

{
    "m_SGVersion": 0,
    "m_Type": "UnityEditor.ShaderGraph.DynamicVectorMaterialSlot",
    "m_ObjectId": "aa81ee0d13844795878832e9c332783b",
    "m_Id": 2,
    "m_DisplayName": "Out",
    "m_SlotType": 1,
    "m_Hidden": false,
    "m_ShaderOutputName": "Out",
    "m_StageCapability": 3,
    "m_Value": {
        "x": 0.0,
        "y": 0.0,
        "z": 0.0,
        "w": 0.0
    },
    "m_DefaultValue": {
        "x": 0.0,
        "y": 0.0,
        "z": 0.0,
        "w": 0.0
    }
}

{
    "m_SGVersion": 0,
    "m_Type": "UnityEditor.ShaderGraph.PropertyNode",
    "m_ObjectId": "acd9473a12734ddfa7b547d71a4bd060",
    "m_Group": {
        "m_Id": ""
    },
    "m_Name": "Property",
    "m_DrawState": {
        "m_Expanded": true,
        "m_Position": {
            "serializedVersion": "2",
            "x": -1130.0,
            "y": -12.0,
            "width": 109.0,
            "height": 34.0
        }
    },
    "m_Slots": [
        {
            "m_Id": "c44fb7e20b334a3c9ec3b839549e6e3c"
        }
    ],
    "synonyms": [],
    "m_Precision": 0,
    "m_PreviewExpanded": true,
    "m_DismissedVersion": 0,
    "m_PreviewMode": 0,
    "m_CustomColors": {
        "m_SerializableColors": []
    },
    "m_Property": {
        "m_Id": "01ce4e70294642ec913399445d071001"
    }
}

{
    "m_SGVersion": 0,
    "m_Type": "UnityEditor.ShaderGraph.Vector3MaterialSlot",
    "m_ObjectId": "afcd7681395d4c62be733318ea788d75",
    "m_Id": 0,
    "m_DisplayName": "Out",
    "m_SlotType": 1,
    "m_Hidden": false,
    "m_ShaderOutputName": "Out",
    "m_StageCapability": 3,
    "m_Value": {
        "x": 0.0,
        "y": 0.0,
        "z": 0.0
    },
    "m_DefaultValue": {
        "x": 0.0,
        "y": 0.0,
        "z": 0.0
    },
    "m_Labels": []
}

{
    "m_SGVersion": 1,
    "m_Type": "UnityEditor.ShaderGraph.Internal.Vector1ShaderProperty",
    "m_ObjectId": "b22e3fc58c4b4b03a73b724facfb3d60",
    "m_Guid": {
        "m_GuidSerialized": "ec1acc35-d7b5-4501-b279-f5ac659dfbe9"
    },
    "m_Name": "Frequency",
    "m_DefaultRefNameVersion": 1,
    "m_RefNameGeneratedByDisplayName": "Frequency",
    "m_DefaultReferenceName": "_Frequency",
    "m_OverrideReferenceName": "",
    "m_GeneratePropertyBlock": true,
    "m_UseCustomSlotLabel": false,
    "m_CustomSlotLabel": "",
    "m_DismissedVersion": 0,
    "m_Precision": 0,
    "overrideHLSLDeclaration": false,
    "hlslDeclarationOverride": 0,
    "m_Hidden": false,
    "m_Value": 1.0,
    "m_FloatType": 0,
    "m_RangeValues": {
        "x": 0.0,
        "y": 1.0
    }
}

{
    "m_SGVersion": 0,
    "m_Type": "UnityEditor.ShaderGraph.PropertyNode",
    "m_ObjectId": "b9c69aeb484c4d629b9e37b6baefb97d",
    "m_Group": {
        "m_Id": ""
    },
    "m_Name": "Property",
    "m_DrawState": {
        "m_Expanded": true,
        "m_Position": {
            "serializedVersion": "2",
            "x": -1152.0,
            "y": 173.0,
            "width": 128.0,
            "height": 34.0
        }
    },
    "m_Slots": [
        {
            "m_Id": "db46f35158fc4deea6a2949938b8ecdb"
        }
    ],
    "synonyms": [],
    "m_Precision": 0,
    "m_PreviewExpanded": true,
    "m_DismissedVersion": 0,
    "m_PreviewMode": 0,
    "m_CustomColors": {
        "m_SerializableColors": []
    },
    "m_Property": {
        "m_Id": "71fedcdd5cfc48cbb5f8d6fba7cfdd42"
    }
}

{
    "m_SGVersion": 0,
    "m_Type": "UnityEditor.ShaderGraph.Vector1MaterialSlot",
    "m_ObjectId": "bda0fe10dd014bb7a0c95ca3314af5f4",
    "m_Id": 3,
    "m_DisplayName": "B",
    "m_SlotType": 1,
    "m_Hidden": false,
    "m_ShaderOutputName": "B",
    "m_StageCapability": 3,
    "m_Value": 0.0,
    "m_DefaultValue": 0.0,
    "m_Labels": []
}

{
    "m_SGVersion": 0,
    "m_Type": "UnityEditor.ShaderGraph.Vector1MaterialSlot",
    "m_ObjectId": "c44fb7e20b334a3c9ec3b839549e6e3c",
    "m_Id": 0,
    "m_DisplayName": "Speed",
    "m_SlotType": 1,
    "m_Hidden": false,
    "m_ShaderOutputName": "Out",
    "m_StageCapability": 3,
    "m_Value": 0.0,
    "m_DefaultValue": 0.0,
    "m_Labels": []
}

{
    "m_SGVersion": 0,
    "m_Type": "UnityEditor.ShaderGraph.DynamicVectorMaterialSlot",
    "m_ObjectId": "c4ac48cac2574ce6a04d3b0d05b66d5f",
    "m_Id": 2,
    "m_DisplayName": "Out",
    "m_SlotType": 1,
    "m_Hidden": false,
    "m_ShaderOutputName": "Out",
    "m_StageCapability": 3,
    "m_Value": {
        "x": 0.0,
        "y": 0.0,
        "z": 0.0,
        "w": 0.0
    },
    "m_DefaultValue": {
        "x": 0.0,
        "y": 0.0,
        "z": 0.0,
        "w": 0.0
    }
}

{
    "m_SGVersion": 0,
    "m_Type": "UnityEditor.ShaderGraph.Vector1MaterialSlot",
    "m_ObjectId": "caef8b0588fd4ba095249f80222d9c02",
    "m_Id": 0,
    "m_DisplayName": "Ambient Occlusion",
    "m_SlotType": 0,
    "m_Hidden": false,
    "m_ShaderOutputName": "Occlusion",
    "m_StageCapability": 2,
    "m_Value": 1.0,
    "m_DefaultValue": 1.0,
    "m_Labels": []
}

{
    "m_SGVersion": 0,
    "m_Type": "UnityEditor.ShaderGraph.Vector1MaterialSlot",
    "m_ObjectId": "cb49acb20e2c4192b8ba86699d10882a",
    "m_Id": 4,
    "m_DisplayName": "R",
    "m_SlotType": 1,
    "m_Hidden": false,
    "m_ShaderOutputName": "R",
    "m_StageCapability": 2,
    "m_Value": 0.0,
    "m_DefaultValue": 0.0,
    "m_Labels": []
}

{
    "m_SGVersion": 0,
    "m_Type": "UnityEditor.ShaderGraph.BlockNode",
    "m_ObjectId": "cd86d9fe76dd4714a99bfce42d45e766",
    "m_Group": {
        "m_Id": ""
    },
    "m_Name": "SurfaceDescription.BaseColor",
    "m_DrawState": {
        "m_Expanded": true,
        "m_Position": {
            "serializedVersion": "2",
            "x": 0.0,
            "y": 0.0,
            "width": 0.0,
            "height": 0.0
        }
    },
    "m_Slots": [
        {
            "m_Id": "0f5d11156c184cca93b64c2836f7ef08"
        }
    ],
    "synonyms": [],
    "m_Precision": 0,
    "m_PreviewExpanded": true,
    "m_DismissedVersion": 0,
    "m_PreviewMode": 0,
    "m_CustomColors": {
        "m_SerializableColors": []
    },
    "m_SerializedDescriptor": "SurfaceDescription.BaseColor"
}

{
    "m_SGVersion": 0,
    "m_Type": "UnityEditor.ShaderGraph.Vector1MaterialSlot",
    "m_ObjectId": "d3f785d6b6694631ac52408c75ef71ba",
    "m_Id": 3,
    "m_DisplayName": "Z",
    "m_SlotType": 0,
    "m_Hidden": false,
    "m_ShaderOutputName": "Z",
    "m_StageCapability": 3,
    "m_Value": 0.0,
    "m_DefaultValue": 0.0,
    "m_Labels": [
        "Z"
    ]
}

{
    "m_SGVersion": 0,
    "m_Type": "UnityEditor.ShaderGraph.PropertyNode",
    "m_ObjectId": "d50694aacfd74f6ebac2cb4e53710957",
    "m_Group": {
        "m_Id": ""
    },
    "m_Name": "Property",
    "m_DrawState": {
        "m_Expanded": true,
        "m_Position": {
            "serializedVersion": "2",
            "x": -1152.0,
            "y": -46.0,
            "width": 131.0,
            "height": 34.0
        }
    },
    "m_Slots": [
        {
            "m_Id": "4b7ee17a558344bfbfc31d29a57498ed"
        }
    ],
    "synonyms": [],
    "m_Precision": 0,
    "m_PreviewExpanded": true,
    "m_DismissedVersion": 0,
    "m_PreviewMode": 0,
    "m_CustomColors": {
        "m_SerializableColors": []
    },
    "m_Property": {
        "m_Id": "b22e3fc58c4b4b03a73b724facfb3d60"
    }
}

{
    "m_SGVersion": 0,
    "m_Type": "UnityEditor.ShaderGraph.PropertyNode",
    "m_ObjectId": "da47bb40fd7a41e2b78957da56acec42",
    "m_Group": {
        "m_Id": ""
    },
    "m_Name": "Property",
    "m_DrawState": {
        "m_Expanded": true,
        "m_Position": {
            "serializedVersion": "2",
            "x": -376.1739196777344,
            "y": 266.08697509765627,
            "width": 0.0,
            "height": 0.0
        }
    },
    "m_Slots": [
        {
            "m_Id": "96d8290efae945a282b35ef08bb07378"
        }
    ],
    "synonyms": [],
    "m_Precision": 0,
    "m_PreviewExpanded": true,
    "m_DismissedVersion": 0,
    "m_PreviewMode": 0,
    "m_CustomColors": {
        "m_SerializableColors": []
    },
    "m_Property": {
        "m_Id": "7424ae57e68c48fdacd46b5545d26758"
    }
}

{
    "m_SGVersion": 0,
    "m_Type": "UnityEditor.ShaderGraph.Vector1MaterialSlot",
    "m_ObjectId": "db46f35158fc4deea6a2949938b8ecdb",
    "m_Id": 0,
    "m_DisplayName": "Amplitude",
    "m_SlotType": 1,
    "m_Hidden": false,
    "m_ShaderOutputName": "Out",
    "m_StageCapability": 3,
    "m_Value": 0.0,
    "m_DefaultValue": 0.0,
    "m_Labels": []
}

{
    "m_SGVersion": 0,
    "m_Type": "UnityEditor.ShaderGraph.PropertyNode",
    "m_ObjectId": "dd4a2eb2e84d487893d47c0734019b97",
    "m_Group": {
        "m_Id": ""
    },
    "m_Name": "Property",
    "m_DrawState": {
        "m_Expanded": true,
        "m_Position": {
            "serializedVersion": "2",
            "x": -1152.0,
            "y": -80.0,
            "width": 128.0,
            "height": 34.0
        }
    },
    "m_Slots": [
        {
            "m_Id": "3f6cfa65a88846a29465854b14130f05"
        }
    ],
    "synonyms": [],
    "m_Precision": 0,
    "m_PreviewExpanded": true,
    "m_DismissedVersion": 0,
    "m_PreviewMode": 0,
    "m_CustomColors": {
        "m_SerializableColors": []
    },
    "m_Property": {
        "m_Id": "71fedcdd5cfc48cbb5f8d6fba7cfdd42"
    }
}

{
    "m_SGVersion": 0,
    "m_Type": "UnityEditor.ShaderGraph.Vector1MaterialSlot",
    "m_ObjectId": "dd560aa483164a8a866a3a91ef8b2727",
    "m_Id": 5,
    "m_DisplayName": "G",
    "m_SlotType": 1,
    "m_Hidden": false,
    "m_ShaderOutputName": "G",
    "m_StageCapability": 2,
    "m_Value": 0.0,
    "m_DefaultValue": 0.0,
    "m_Labels": []
}

{
    "m_SGVersion": 0,
    "m_Type": "UnityEditor.ShaderGraph.Texture2DInputMaterialSlot",
    "m_ObjectId": "df7fcd177c4946b9950a5aaa8f3b4192",
    "m_Id": 1,
    "m_DisplayName": "Texture",
    "m_SlotType": 0,
    "m_Hidden": false,
    "m_ShaderOutputName": "Texture",
    "m_StageCapability": 3,
    "m_BareResource": false,
    "m_Texture": {
        "m_SerializedTexture": "{\"texture\":{\"instanceID\":0}}",
        "m_Guid": ""
    },
    "m_DefaultType": 0
}

{
    "m_SGVersion": 0,
    "m_Type": "UnityEditor.ShaderGraph.SubGraphNode",
    "m_ObjectId": "e22f6974eea84d619d18ede594347ccd",
    "m_Group": {
        "m_Id": ""
    },
    "m_Name": "Linear Wave",
    "m_DrawState": {
        "m_Expanded": true,
        "m_Position": {
            "serializedVersion": "2",
            "x": -952.0,
            "y": 124.0,
            "width": 226.0,
            "height": 166.0
        }
    },
    "m_Slots": [
        {
            "m_Id": "f6d444d281984d6bb88f26ba66badd7d"
        },
        {
            "m_Id": "928de837a7e74e71aea16f1aa1bda5ad"
        },
        {
            "m_Id": "4ed24bf8c1d94ef589e4b88f41ceccb3"
        },
        {
            "m_Id": "082735a0515d4a7c9f6dffeb037dbf10"
        },
        {
            "m_Id": "f69f7bfb605543f88907167fd09c2dc8"
        }
    ],
    "synonyms": [],
    "m_Precision": 0,
    "m_PreviewExpanded": false,
    "m_DismissedVersion": 0,
    "m_PreviewMode": 0,
    "m_CustomColors": {
        "m_SerializableColors": []
    },
    "m_SerializedSubGraph": "{\n    \"subGraph\": {\n        \"fileID\": -5475051401550479605,\n        \"guid\": \"d4e860fb178c55a4e8648aea0b7a6e51\",\n        \"type\": 3\n    }\n}",
    "m_PropertyGuids": [
        "d381b8a9-8e76-4a96-9654-c4cda86a2d54",
        "cde3953c-4812-4a74-9a96-41e87e43bc5b",
        "7c1692fa-9686-49c5-b86f-cb126ad05f14",
        "3bcc58e1-1a04-4624-904f-0aa930c02649"
    ],
    "m_PropertyIds": [
        16648417,
        879364298,
        860339118,
        -1648046779
    ],
    "m_Dropdowns": [],
    "m_DropdownSelectedEntries": []
}

{
    "m_SGVersion": 0,
    "m_Type": "UnityEditor.ShaderGraph.PropertyNode",
    "m_ObjectId": "e8a4f4a4b6e84bff93c1c941ba41d5e3",
    "m_Group": {
        "m_Id": ""
    },
    "m_Name": "Property",
    "m_DrawState": {
        "m_Expanded": true,
        "m_Position": {
            "serializedVersion": "2",
            "x": -1130.0,
            "y": 241.0,
            "width": 109.0,
            "height": 34.0
        }
    },
    "m_Slots": [
        {
            "m_Id": "9e277d5b30bc4a89992e810c537331dd"
        }
    ],
    "synonyms": [],
    "m_Precision": 0,
    "m_PreviewExpanded": true,
    "m_DismissedVersion": 0,
    "m_PreviewMode": 0,
    "m_CustomColors": {
        "m_SerializableColors": []
    },
    "m_Property": {
        "m_Id": "01ce4e70294642ec913399445d071001"
    }
}

{
    "m_SGVersion": 0,
    "m_Type": "UnityEditor.ShaderGraph.Vector3Node",
    "m_ObjectId": "edbde50690364dc384c1a2e66cb735fc",
    "m_Group": {
        "m_Id": ""
    },
    "m_Name": "Vector 3",
    "m_DrawState": {
        "m_Expanded": true,
        "m_Position": {
            "serializedVersion": "2",
            "x": -267.1999206542969,
            "y": 21.599994659423829,
            "width": 127.99996948242188,
            "height": 124.80000305175781
        }
    },
    "m_Slots": [
        {
            "m_Id": "5673046ef3744f389bef070c7502382a"
        },
        {
            "m_Id": "784c8af795a749089ede82d016237a7b"
        },
        {
            "m_Id": "d3f785d6b6694631ac52408c75ef71ba"
        },
        {
            "m_Id": "afcd7681395d4c62be733318ea788d75"
        }
    ],
    "synonyms": [
        "3",
        "v3",
        "vec3",
        "float3"
    ],
    "m_Precision": 0,
    "m_PreviewExpanded": true,
    "m_DismissedVersion": 0,
    "m_PreviewMode": 0,
    "m_CustomColors": {
        "m_SerializableColors": []
    },
    "m_Value": {
        "x": 0.0,
        "y": 0.0,
        "z": 0.0
    }
}

{
    "m_SGVersion": 0,
    "m_Type": "UnityEditor.ShaderGraph.Vector1MaterialSlot",
    "m_ObjectId": "edc69bb90d03488fbd1f6b7b12490fb9",
    "m_Id": 1,
    "m_DisplayName": "Displacement",
    "m_SlotType": 1,
    "m_Hidden": false,
    "m_ShaderOutputName": "Displacement",
    "m_StageCapability": 3,
    "m_Value": 0.0,
    "m_DefaultValue": 0.0,
    "m_Labels": []
}

{
    "m_SGVersion": 0,
    "m_Type": "UnityEditor.ShaderGraph.BlockNode",
    "m_ObjectId": "f0df0f5dcbbe4cd19c384a9d6425bdbc",
    "m_Group": {
        "m_Id": ""
    },
    "m_Name": "SurfaceDescription.NormalTS",
    "m_DrawState": {
        "m_Expanded": true,
        "m_Position": {
            "serializedVersion": "2",
            "x": 0.0,
            "y": 0.0,
            "width": 0.0,
            "height": 0.0
        }
    },
    "m_Slots": [
        {
            "m_Id": "549072d0aa2b4924a980c3b95442e72b"
        }
    ],
    "synonyms": [],
    "m_Precision": 0,
    "m_PreviewExpanded": true,
    "m_DismissedVersion": 0,
    "m_PreviewMode": 0,
    "m_CustomColors": {
        "m_SerializableColors": []
    },
    "m_SerializedDescriptor": "SurfaceDescription.NormalTS"
}

{
    "m_SGVersion": 0,
    "m_Type": "UnityEditor.ShaderGraph.Vector1MaterialSlot",
    "m_ObjectId": "f406ed09195c40ce81e7f7d993bddf2e",
    "m_Id": 7,
    "m_DisplayName": "A",
    "m_SlotType": 1,
    "m_Hidden": false,
    "m_ShaderOutputName": "A",
    "m_StageCapability": 2,
    "m_Value": 0.0,
    "m_DefaultValue": 0.0,
    "m_Labels": []
}

{
    "m_SGVersion": 0,
    "m_Type": "UnityEditor.ShaderGraph.NormalMaterialSlot",
    "m_ObjectId": "f4730e09444b443d9ec69d2c6c0428bb",
    "m_Id": 0,
    "m_DisplayName": "Normal",
    "m_SlotType": 0,
    "m_Hidden": false,
    "m_ShaderOutputName": "Normal",
    "m_StageCapability": 1,
    "m_Value": {
        "x": 0.0,
        "y": 0.0,
        "z": 0.0
    },
    "m_DefaultValue": {
        "x": 0.0,
        "y": 0.0,
        "z": 0.0
    },
    "m_Labels": [],
    "m_Space": 0
}

{
    "m_SGVersion": 0,
    "m_Type": "UnityEditor.ShaderGraph.Vector1MaterialSlot",
    "m_ObjectId": "f4f52ee56af141e6a656e65d55363be1",
    "m_Id": -1648046779,
    "m_DisplayName": "Speed",
    "m_SlotType": 0,
    "m_Hidden": false,
    "m_ShaderOutputName": "_Speed",
    "m_StageCapability": 3,
    "m_Value": 1.0,
    "m_DefaultValue": 0.0,
    "m_Labels": []
}

{
    "m_SGVersion": 0,
    "m_Type": "UnityEditor.ShaderGraph.DynamicVectorMaterialSlot",
    "m_ObjectId": "f569e6a1f62c493daaf4c4d457662ea5",
    "m_Id": 0,
    "m_DisplayName": "A",
    "m_SlotType": 0,
    "m_Hidden": false,
    "m_ShaderOutputName": "A",
    "m_StageCapability": 3,
    "m_Value": {
        "x": 1.0,
        "y": 1.0,
        "z": 1.0,
        "w": 1.0
    },
    "m_DefaultValue": {
        "x": 0.0,
        "y": 0.0,
        "z": 0.0,
        "w": 0.0
    }
}

{
    "m_SGVersion": 0,
    "m_Type": "UnityEditor.ShaderGraph.Vector1MaterialSlot",
    "m_ObjectId": "f69f7bfb605543f88907167fd09c2dc8",
    "m_Id": 1,
    "m_DisplayName": "Displacement",
    "m_SlotType": 1,
    "m_Hidden": false,
    "m_ShaderOutputName": "Displacement",
    "m_StageCapability": 3,
    "m_Value": 0.0,
    "m_DefaultValue": 0.0,
    "m_Labels": []
}

{
    "m_SGVersion": 0,
    "m_Type": "UnityEditor.ShaderGraph.BlockNode",
    "m_ObjectId": "f6a67c35f6b84a67bfaac8bc6da02722",
    "m_Group": {
        "m_Id": ""
    },
    "m_Name": "VertexDescription.Position",
    "m_DrawState": {
        "m_Expanded": true,
        "m_Position": {
            "serializedVersion": "2",
            "x": 0.0,
            "y": 0.0,
            "width": 0.0,
            "height": 0.0
        }
    },
    "m_Slots": [
        {
            "m_Id": "7e0156affca442e987d36251dd6b3d9b"
        }
    ],
    "synonyms": [],
    "m_Precision": 0,
    "m_PreviewExpanded": true,
    "m_DismissedVersion": 0,
    "m_PreviewMode": 0,
    "m_CustomColors": {
        "m_SerializableColors": []
    },
    "m_SerializedDescriptor": "VertexDescription.Position"
}

{
    "m_SGVersion": 0,
    "m_Type": "UnityEditor.ShaderGraph.Vector1MaterialSlot",
    "m_ObjectId": "f6d444d281984d6bb88f26ba66badd7d",
    "m_Id": 16648417,
    "m_DisplayName": "X",
    "m_SlotType": 0,
    "m_Hidden": false,
    "m_ShaderOutputName": "_X",
    "m_StageCapability": 3,
    "m_Value": 0.0,
    "m_DefaultValue": 0.0,
    "m_Labels": []
}

{
    "m_SGVersion": 0,
    "m_Type": "UnityEditor.ShaderGraph.Vector1MaterialSlot",
    "m_ObjectId": "f710571636e64193b3bf29f2f9851c62",
    "m_Id": 1,
    "m_DisplayName": "R",
    "m_SlotType": 1,
    "m_Hidden": false,
    "m_ShaderOutputName": "R",
    "m_StageCapability": 3,
    "m_Value": 0.0,
    "m_DefaultValue": 0.0,
    "m_Labels": []
}

{
    "m_SGVersion": 1,
    "m_Type": "UnityEditor.ShaderGraph.PositionNode",
    "m_ObjectId": "f73f2b30cc3543208bce53a07c4bd3e0",
    "m_Group": {
        "m_Id": ""
    },
    "m_Name": "Position",
    "m_DrawState": {
        "m_Expanded": true,
        "m_Position": {
            "serializedVersion": "2",
            "x": -1372.800048828125,
            "y": 21.600000381469728,
            "width": 208.0,
            "height": 312.79998779296877
        }
    },
    "m_Slots": [
        {
            "m_Id": "fb1974376e27429a9d058b792e58af6a"
        }
    ],
    "synonyms": [
        "location"
    ],
    "m_Precision": 1,
    "m_PreviewExpanded": false,
    "m_DismissedVersion": 0,
    "m_PreviewMode": 2,
    "m_CustomColors": {
        "m_SerializableColors": []
    },
    "m_Space": 0,
    "m_PositionSource": 0
}

{
    "m_SGVersion": 0,
    "m_Type": "UnityEditor.ShaderGraph.Vector1MaterialSlot",
    "m_ObjectId": "f9d3a76b54ac4c4b85a5a189f3da9800",
    "m_Id": 0,
    "m_DisplayName": "Smoothness",
    "m_SlotType": 0,
    "m_Hidden": false,
    "m_ShaderOutputName": "Smoothness",
    "m_StageCapability": 2,
    "m_Value": 0.5,
    "m_DefaultValue": 0.5,
    "m_Labels": []
}

{
    "m_SGVersion": 0,
    "m_Type": "UnityEditor.ShaderGraph.Vector3MaterialSlot",
    "m_ObjectId": "fb1974376e27429a9d058b792e58af6a",
    "m_Id": 0,
    "m_DisplayName": "Out",
    "m_SlotType": 1,
    "m_Hidden": false,
    "m_ShaderOutputName": "Out",
    "m_StageCapability": 3,
    "m_Value": {
        "x": 0.0,
        "y": 0.0,
        "z": 0.0
    },
    "m_DefaultValue": {
        "x": 0.0,
        "y": 0.0,
        "z": 0.0
    },
    "m_Labels": []
}

{
    "m_SGVersion": 0,
    "m_Type": "UnityEditor.ShaderGraph.BlockNode",
    "m_ObjectId": "fc715fa1db2448238644042c25230e7d",
    "m_Group": {
        "m_Id": ""
    },
    "m_Name": "SurfaceDescription.Occlusion",
    "m_DrawState": {
        "m_Expanded": true,
        "m_Position": {
            "serializedVersion": "2",
            "x": 0.0,
            "y": 0.0,
            "width": 0.0,
            "height": 0.0
        }
    },
    "m_Slots": [
        {
            "m_Id": "caef8b0588fd4ba095249f80222d9c02"
        }
    ],
    "synonyms": [],
    "m_Precision": 0,
    "m_PreviewExpanded": true,
    "m_DismissedVersion": 0,
    "m_PreviewMode": 0,
    "m_CustomColors": {
        "m_SerializableColors": []
    },
    "m_SerializedDescriptor": "SurfaceDescription.Occlusion"
}

